module gitlab.com/alyakimenko/pp-report-checker

go 1.14

require (
	github.com/emersion/go-imap v1.0.5
	github.com/emersion/go-message v0.11.1
	github.com/kr/pretty v0.1.0 // indirect
	github.com/labstack/echo/v4 v4.1.16
	github.com/mattn/go-colorable v0.1.7 // indirect
	github.com/mattn/go-sqlite3 v2.0.3+incompatible
	github.com/stretchr/testify v1.6.1 // indirect
	github.com/valyala/fasttemplate v1.1.1 // indirect
	golang.org/x/net v0.0.0-20200625001655-4c5254603344 // indirect
	golang.org/x/sys v0.0.0-20200625212154-ddb9806d33ae // indirect
	golang.org/x/text v0.3.3 // indirect
	gopkg.in/check.v1 v1.0.0-20180628173108-788fd7840127 // indirect
)
