{
  "swagger": "2.0",
  "info": {
    "version": "1.0.0",
    "title": "Payments API",
    "description": "A Payments API, now accepts only PayPal.",
    "termsOfService": "http://swagger.io/terms/"
  },
  "host": "localhost:6969",
  "basePath": "/",
  "schemes": [
    "http"
  ],
  "securityDefinitions": {
    "Bearer": {
      "type": "apiKey",
      "name": "Authorization",
      "in": "header"
    }
  },
  "consumes": [
    "application/json"
  ],
  "produces": [
    "application/json"
  ],
  "paths": {
    "/payments": {
      "get": {
        "security": [
          {
            "Bearer": []
          }
        ],
        "description": "Returns all Payments",
        "operationId": "getAll",
        "responses": {
          "200": {
            "description": "payments",
            "schema": {
              "type": "array",
              "items": {
                "$ref": "#/definitions/Payment"
              }
            }
          },
          "default": {
            "description": "unexpected error",
            "schema": {
              "$ref": "#/definitions/Error"
            }
          }
        }
      },
      "post": {
        "security": [
          {
            "Bearer": []
          }
        ],
        "description": "Creates a new payment.",
        "operationId": "createNewPayment",
        "parameters": [
        {
          "name": "NewPayment",
          "in": "body",
          "description": "NewPayment",
          "required": true,
          "schema": {
            "$ref": "#/definitions/NewPayment"
          }
        }
        ],
        "responses": {
          "200": {
            "description": "payment response",
            "schema": {
              "$ref": "#/definitions/Payment"
            }
          },
          "default": {
            "description": "unexpected error",
            "schema": {
              "$ref": "#/definitions/Error"
            }
          }
        }
      }
    },
    "/payments/pending": {
      "get": {
        "security": [
          {
            "Bearer": []
          }
        ],
        "description": "Returns all Payments with status Pending",
        "operationId": "getAllPending",
        "responses": {
          "200": {
            "description": "payments",
            "schema": {
              "type": "array",
              "items": {
                "$ref": "#/definitions/Payment"
              }
            }
          },
          "default": {
            "description": "unexpected error",
            "schema": {
              "$ref": "#/definitions/Error"
            }
          }
        }
      }
    },
    "/payments/expired": {
      "get": {
        "security": [
          {
            "Bearer": []
          }
        ],
        "description": "Returns all Payments with status Expired",
        "operationId": "getAllExpired",
        "responses": {
          "200": {
            "description": "payments",
            "schema": {
              "type": "array",
              "items": {
                "$ref": "#/definitions/Payment"
              }
            }
          },
          "default": {
            "description": "unexpected error",
            "schema": {
              "$ref": "#/definitions/Error"
            }
          }
        }
      }
    }
  },
  "definitions": {
    "Payment": {
      "type": "object",
      "properties": {
        "id": {
          "type": "integer",
          "format": "int64"
        },
        "email": {
          "type": "string"
        },
        "amount": {
          "type": "number",
          "format": "float"
        },
        "currency": {
          "type": "string"
        },
        "created_at": {
          "type": "string",
          "format": "date-time"
        },
        "last_check_date": {
          "type": "string",
          "format": "date-time"
        },
        "payment_system": {
          "type": "string"
        },
        "payment_id": {
          "type": "number"
        },
        "status": {
          "type": "string"
        }
      }
    },
    "NewPayment": {
      "type": "object",
      "required": [
        "email",
        "amount",
        "currency",
        "payment_id"
      ],
      "properties": {
        "email": {
          "type": "string"
        },
        "amount": {
          "type": "number",
          "format": "float"
        },
        "currency": {
          "type": "string"
        },
        "payment_id": {
          "type": "number"
        }
      }
    },
    "Error": {
      "type": "object",
      "required": [
        "code",
        "message"
      ],
      "properties": {
        "code": {
          "type": "integer",
          "format": "int32"
        },
        "message": {
          "type": "string"
        }
      }
    }
  }
}
